2023/09/22-22:49:16.810068 731c RocksDB version: 5.18.4
2023/09/22-22:49:16.810132 731c Git sha rocksdb_build_git_sha:@b9a4a10659969c71e6f6eab4e4bae8c36ede919f@
2023/09/22-22:49:16.810149 731c Compile date Mar 11 2020
2023/09/22-22:49:16.810159 731c DB SUMMARY
2023/09/22-22:49:16.810250 731c CURRENT file:  CURRENT
2023/09/22-22:49:16.810263 731c IDENTITY file:  IDENTITY
2023/09/22-22:49:16.810282 731c MANIFEST file:  MANIFEST-000019 size: 525 Bytes
2023/09/22-22:49:16.810293 731c SST files in D:\AI\YSTH\SourceTree\springboot-bluejade-learn\other-file\nacos\data\protocol\raft\naming_instance_metadata\log dir, Total Num: 8, files: 000006.sst 000008.sst 000010.sst 000012.sst 000014.sst 000016.sst 000018.sst 000020.sst 
2023/09/22-22:49:16.810302 731c Write Ahead Log file in D:\AI\YSTH\SourceTree\springboot-bluejade-learn\other-file\nacos\data\protocol\raft\naming_instance_metadata\log: 000021.log size: 1589 ; 
2023/09/22-22:49:16.810619 731c                         Options.error_if_exists: 0
2023/09/22-22:49:16.810632 731c                       Options.create_if_missing: 1
2023/09/22-22:49:16.810636 731c                         Options.paranoid_checks: 1
2023/09/22-22:49:16.810640 731c                                     Options.env: 0000019C129287F0
2023/09/22-22:49:16.810643 731c                                Options.info_log: 0000019C1EF8CEE0
2023/09/22-22:49:16.810647 731c                Options.max_file_opening_threads: 16
2023/09/22-22:49:16.810720 731c                              Options.statistics: 0000019C19FC3DF0
2023/09/22-22:49:16.810788 731c                               Options.use_fsync: 0
2023/09/22-22:49:16.810794 731c                       Options.max_log_file_size: 0
2023/09/22-22:49:16.810797 731c                  Options.max_manifest_file_size: 1073741824
2023/09/22-22:49:16.810800 731c                   Options.log_file_time_to_roll: 0
2023/09/22-22:49:16.810802 731c                       Options.keep_log_file_num: 1000
2023/09/22-22:49:16.810805 731c                    Options.recycle_log_file_num: 0
2023/09/22-22:49:16.810808 731c                         Options.allow_fallocate: 1
2023/09/22-22:49:16.810811 731c                        Options.allow_mmap_reads: 0
2023/09/22-22:49:16.810814 731c                       Options.allow_mmap_writes: 0
2023/09/22-22:49:16.810816 731c                        Options.use_direct_reads: 0
2023/09/22-22:49:16.810819 731c                        Options.use_direct_io_for_flush_and_compaction: 0
2023/09/22-22:49:16.810822 731c          Options.create_missing_column_families: 1
2023/09/22-22:49:16.810825 731c                              Options.db_log_dir: 
2023/09/22-22:49:16.810827 731c                                 Options.wal_dir: D:\AI\YSTH\SourceTree\springboot-bluejade-learn\other-file\nacos\data\protocol\raft\naming_instance_metadata\log
2023/09/22-22:49:16.810831 731c                Options.table_cache_numshardbits: 6
2023/09/22-22:49:16.810833 731c                      Options.max_subcompactions: 1
2023/09/22-22:49:16.810836 731c                  Options.max_background_flushes: 1
2023/09/22-22:49:16.810839 731c                         Options.WAL_ttl_seconds: 0
2023/09/22-22:49:16.810842 731c                       Options.WAL_size_limit_MB: 0
2023/09/22-22:49:16.810845 731c             Options.manifest_preallocation_size: 4194304
2023/09/22-22:49:16.810847 731c                     Options.is_fd_close_on_exec: 1
2023/09/22-22:49:16.810850 731c                   Options.advise_random_on_open: 1
2023/09/22-22:49:16.810853 731c                    Options.db_write_buffer_size: 0
2023/09/22-22:49:16.810856 731c                    Options.write_buffer_manager: 0000019C180E7B60
2023/09/22-22:49:16.810859 731c         Options.access_hint_on_compaction_start: 1
2023/09/22-22:49:16.810861 731c  Options.new_table_reader_for_compaction_inputs: 0
2023/09/22-22:49:16.810864 731c           Options.random_access_max_buffer_size: 1048576
2023/09/22-22:49:16.810867 731c                      Options.use_adaptive_mutex: 0
2023/09/22-22:49:16.810870 731c                            Options.rate_limiter: 0000000000000000
2023/09/22-22:49:16.810901 731c     Options.sst_file_manager.rate_bytes_per_sec: 0
2023/09/22-22:49:16.810907 731c                       Options.wal_recovery_mode: 2
2023/09/22-22:49:16.810910 731c                  Options.enable_thread_tracking: 0
2023/09/22-22:49:16.810912 731c                  Options.enable_pipelined_write: 0
2023/09/22-22:49:16.810915 731c         Options.allow_concurrent_memtable_write: 1
2023/09/22-22:49:16.810918 731c      Options.enable_write_thread_adaptive_yield: 1
2023/09/22-22:49:16.810921 731c             Options.write_thread_max_yield_usec: 100
2023/09/22-22:49:16.810923 731c            Options.write_thread_slow_yield_usec: 3
2023/09/22-22:49:16.810926 731c                               Options.row_cache: None
2023/09/22-22:49:16.810929 731c                              Options.wal_filter: None
2023/09/22-22:49:16.810932 731c             Options.avoid_flush_during_recovery: 0
2023/09/22-22:49:16.810935 731c             Options.allow_ingest_behind: 0
2023/09/22-22:49:16.810937 731c             Options.preserve_deletes: 0
2023/09/22-22:49:16.810940 731c             Options.two_write_queues: 0
2023/09/22-22:49:16.810943 731c             Options.manual_wal_flush: 0
2023/09/22-22:49:16.810945 731c             Options.max_background_jobs: 2
2023/09/22-22:49:16.810948 731c             Options.max_background_compactions: 4
2023/09/22-22:49:16.810951 731c             Options.avoid_flush_during_shutdown: 0
2023/09/22-22:49:16.810953 731c           Options.writable_file_max_buffer_size: 1048576
2023/09/22-22:49:16.810956 731c             Options.delayed_write_rate : 16777216
2023/09/22-22:49:16.810959 731c             Options.max_total_wal_size: 0
2023/09/22-22:49:16.810962 731c             Options.delete_obsolete_files_period_micros: 21600000000
2023/09/22-22:49:16.810965 731c                   Options.stats_dump_period_sec: 600
2023/09/22-22:49:16.810967 731c                          Options.max_open_files: -1
2023/09/22-22:49:16.810970 731c                          Options.bytes_per_sync: 0
2023/09/22-22:49:16.810973 731c                      Options.wal_bytes_per_sync: 0
2023/09/22-22:49:16.810976 731c       Options.compaction_readahead_size: 0
2023/09/22-22:49:16.810979 731c Compression algorithms supported:
2023/09/22-22:49:16.810983 731c 	kZSTD supported: 1
2023/09/22-22:49:16.810986 731c 	kSnappyCompression supported: 1
2023/09/22-22:49:16.810989 731c 	kBZip2Compression supported: 0
2023/09/22-22:49:16.810991 731c 	kZlibCompression supported: 1
2023/09/22-22:49:16.810994 731c 	kLZ4Compression supported: 1
2023/09/22-22:49:16.810997 731c 	kXpressCompression supported: 0
2023/09/22-22:49:16.811000 731c 	kLZ4HCCompression supported: 1
2023/09/22-22:49:16.811003 731c 	kZSTDNotFinalCompression supported: 1
2023/09/22-22:49:16.811007 731c Fast CRC32 supported: Supported on x86
2023/09/22-22:49:16.817627 731c [db\version_set.cc:3508] Recovering from manifest file: MANIFEST-000019
2023/09/22-22:49:16.817705 731c [db\column_family.cc:474] --------------- Options for column family [default]:
2023/09/22-22:49:16.817713 731c               Options.comparator: leveldb.BytewiseComparator
2023/09/22-22:49:16.817717 731c           Options.merge_operator: StringAppendOperator
2023/09/22-22:49:16.817720 731c        Options.compaction_filter: None
2023/09/22-22:49:16.817723 731c        Options.compaction_filter_factory: None
2023/09/22-22:49:16.817725 731c         Options.memtable_factory: SkipListFactory
2023/09/22-22:49:16.817728 731c            Options.table_factory: BlockBasedTable
2023/09/22-22:49:16.817767 731c            table_factory options:   flush_block_policy_factory: FlushBlockBySizePolicyFactory (0000019C1EB398D0)
  cache_index_and_filter_blocks: 0
  cache_index_and_filter_blocks_with_high_priority: 1
  pin_l0_filter_and_index_blocks_in_cache: 1
  pin_top_level_index_and_filter: 1
  index_type: 2
  hash_index_allow_collision: 1
  checksum: 1
  no_block_cache: 0
  block_cache: 0000019C16C5C050
  block_cache_name: LRUCache
  block_cache_options:
    capacity : 536870912
    num_shard_bits : 8
    strict_capacity_limit : 0
    memory_allocator : None
    high_pri_pool_ratio: 0.000
  block_cache_compressed: 0000000000000000
  persistent_cache: 0000000000000000
  block_size: 4096
  block_size_deviation: 10
  block_restart_interval: 16
  index_block_restart_interval: 1
  metadata_block_size: 8192
  partition_filters: 1
  use_delta_encoding: 1
  filter_policy: nullptr
  whole_key_filtering: 1
  verify_compression: 0
  read_amp_bytes_per_bit: 0
  format_version: 0
  enable_index_compression: 1
  block_align: 0
2023/09/22-22:49:16.817813 731c        Options.write_buffer_size: 67108864
2023/09/22-22:49:16.817819 731c  Options.max_write_buffer_number: 3
2023/09/22-22:49:16.817822 731c          Options.compression: Snappy
2023/09/22-22:49:16.817824 731c                  Options.bottommost_compression: Disabled
2023/09/22-22:49:16.817828 731c       Options.prefix_extractor: rocksdb.FixedPrefix.8
2023/09/22-22:49:16.817830 731c   Options.memtable_insert_with_hint_prefix_extractor: nullptr
2023/09/22-22:49:16.817833 731c             Options.num_levels: 7
2023/09/22-22:49:16.817836 731c        Options.min_write_buffer_number_to_merge: 1
2023/09/22-22:49:16.817839 731c     Options.max_write_buffer_number_to_maintain: 0
2023/09/22-22:49:16.817841 731c            Options.bottommost_compression_opts.window_bits: -14
2023/09/22-22:49:16.817844 731c                  Options.bottommost_compression_opts.level: 32767
2023/09/22-22:49:16.817847 731c               Options.bottommost_compression_opts.strategy: 0
2023/09/22-22:49:16.817850 731c         Options.bottommost_compression_opts.max_dict_bytes: 0
2023/09/22-22:49:16.817853 731c         Options.bottommost_compression_opts.zstd_max_train_bytes: 0
2023/09/22-22:49:16.817855 731c                  Options.bottommost_compression_opts.enabled: false
2023/09/22-22:49:16.817858 731c            Options.compression_opts.window_bits: -14
2023/09/22-22:49:16.817861 731c                  Options.compression_opts.level: 32767
2023/09/22-22:49:16.817864 731c               Options.compression_opts.strategy: 0
2023/09/22-22:49:16.817866 731c         Options.compression_opts.max_dict_bytes: 0
2023/09/22-22:49:16.817869 731c         Options.compression_opts.zstd_max_train_bytes: 0
2023/09/22-22:49:16.817872 731c                  Options.compression_opts.enabled: false
2023/09/22-22:49:16.817874 731c      Options.level0_file_num_compaction_trigger: 10
2023/09/22-22:49:16.817877 731c          Options.level0_slowdown_writes_trigger: 20
2023/09/22-22:49:16.817880 731c              Options.level0_stop_writes_trigger: 40
2023/09/22-22:49:16.817883 731c                   Options.target_file_size_base: 67108864
2023/09/22-22:49:16.817885 731c             Options.target_file_size_multiplier: 1
2023/09/22-22:49:16.817888 731c                Options.max_bytes_for_level_base: 536870912
2023/09/22-22:49:16.817891 731c Options.level_compaction_dynamic_level_bytes: 0
2023/09/22-22:49:16.817894 731c          Options.max_bytes_for_level_multiplier: 10.000000
2023/09/22-22:49:16.817898 731c Options.max_bytes_for_level_multiplier_addtl[0]: 1
2023/09/22-22:49:16.817901 731c Options.max_bytes_for_level_multiplier_addtl[1]: 1
2023/09/22-22:49:16.817904 731c Options.max_bytes_for_level_multiplier_addtl[2]: 1
2023/09/22-22:49:16.817906 731c Options.max_bytes_for_level_multiplier_addtl[3]: 1
2023/09/22-22:49:16.817909 731c Options.max_bytes_for_level_multiplier_addtl[4]: 1
2023/09/22-22:49:16.817912 731c Options.max_bytes_for_level_multiplier_addtl[5]: 1
2023/09/22-22:49:16.817915 731c Options.max_bytes_for_level_multiplier_addtl[6]: 1
2023/09/22-22:49:16.817917 731c       Options.max_sequential_skip_in_iterations: 8
2023/09/22-22:49:16.817920 731c                    Options.max_compaction_bytes: 1677721600
2023/09/22-22:49:16.817923 731c                        Options.arena_block_size: 8388608
2023/09/22-22:49:16.817926 731c   Options.soft_pending_compaction_bytes_limit: 68719476736
2023/09/22-22:49:16.817928 731c   Options.hard_pending_compaction_bytes_limit: 274877906944
2023/09/22-22:49:16.817931 731c       Options.rate_limit_delay_max_milliseconds: 100
2023/09/22-22:49:16.817936 731c                Options.disable_auto_compactions: 0
2023/09/22-22:49:16.817940 731c                        Options.compaction_style: kCompactionStyleLevel
2023/09/22-22:49:16.817944 731c                          Options.compaction_pri: kByCompensatedSize
2023/09/22-22:49:16.817947 731c Options.compaction_options_universal.size_ratio: 1
2023/09/22-22:49:16.817950 731c Options.compaction_options_universal.min_merge_width: 2
2023/09/22-22:49:16.817952 731c Options.compaction_options_universal.max_merge_width: 4294967295
2023/09/22-22:49:16.817955 731c Options.compaction_options_universal.max_size_amplification_percent: 200
2023/09/22-22:49:16.817958 731c Options.compaction_options_universal.compression_size_percent: -1
2023/09/22-22:49:16.817961 731c Options.compaction_options_universal.stop_style: kCompactionStopStyleTotalSize
2023/09/22-22:49:16.817964 731c Options.compaction_options_fifo.max_table_files_size: 1073741824
2023/09/22-22:49:16.817967 731c Options.compaction_options_fifo.allow_compaction: 0
2023/09/22-22:49:16.817970 731c Options.compaction_options_fifo.ttl: 0
2023/09/22-22:49:16.817972 731c                   Options.table_properties_collectors: 
2023/09/22-22:49:16.817975 731c                   Options.inplace_update_support: 0
2023/09/22-22:49:16.817978 731c                 Options.inplace_update_num_locks: 10000
2023/09/22-22:49:16.817981 731c               Options.memtable_prefix_bloom_size_ratio: 0.125000
2023/09/22-22:49:16.817984 731c   Options.memtable_huge_page_size: 0
2023/09/22-22:49:16.817987 731c                           Options.bloom_locality: 0
2023/09/22-22:49:16.817990 731c                    Options.max_successive_merges: 0
2023/09/22-22:49:16.817992 731c                Options.optimize_filters_for_hits: 0
2023/09/22-22:49:16.817995 731c                Options.paranoid_file_checks: 0
2023/09/22-22:49:16.817998 731c                Options.force_consistency_checks: 1
2023/09/22-22:49:16.818000 731c                Options.report_bg_io_stats: 0
2023/09/22-22:49:16.818003 731c                               Options.ttl: 0
2023/09/22-22:49:16.820598 731c [db\column_family.cc:474] --------------- Options for column family [Configuration]:
2023/09/22-22:49:16.820631 731c               Options.comparator: leveldb.BytewiseComparator
2023/09/22-22:49:16.820635 731c           Options.merge_operator: StringAppendOperator
2023/09/22-22:49:16.820638 731c        Options.compaction_filter: None
2023/09/22-22:49:16.820641 731c        Options.compaction_filter_factory: None
2023/09/22-22:49:16.820644 731c         Options.memtable_factory: SkipListFactory
2023/09/22-22:49:16.820647 731c            Options.table_factory: BlockBasedTable
2023/09/22-22:49:16.820674 731c            table_factory options:   flush_block_policy_factory: FlushBlockBySizePolicyFactory (0000019C1EB398D0)
  cache_index_and_filter_blocks: 0
  cache_index_and_filter_blocks_with_high_priority: 1
  pin_l0_filter_and_index_blocks_in_cache: 1
  pin_top_level_index_and_filter: 1
  index_type: 2
  hash_index_allow_collision: 1
  checksum: 1
  no_block_cache: 0
  block_cache: 0000019C16C5C050
  block_cache_name: LRUCache
  block_cache_options:
    capacity : 536870912
    num_shard_bits : 8
    strict_capacity_limit : 0
    memory_allocator : None
    high_pri_pool_ratio: 0.000
  block_cache_compressed: 0000000000000000
  persistent_cache: 0000000000000000
  block_size: 4096
  block_size_deviation: 10
  block_restart_interval: 16
  index_block_restart_interval: 1
  metadata_block_size: 8192
  partition_filters: 1
  use_delta_encoding: 1
  filter_policy: nullptr
  whole_key_filtering: 1
  verify_compression: 0
  read_amp_bytes_per_bit: 0
  format_version: 0
  enable_index_compression: 1
  block_align: 0
2023/09/22-22:49:16.820678 731c        Options.write_buffer_size: 67108864
2023/09/22-22:49:16.820681 731c  Options.max_write_buffer_number: 3
2023/09/22-22:49:16.820684 731c          Options.compression: Snappy
2023/09/22-22:49:16.820686 731c                  Options.bottommost_compression: Disabled
2023/09/22-22:49:16.820739 731c       Options.prefix_extractor: rocksdb.FixedPrefix.8
2023/09/22-22:49:16.820762 731c   Options.memtable_insert_with_hint_prefix_extractor: nullptr
2023/09/22-22:49:16.820766 731c             Options.num_levels: 7
2023/09/22-22:49:16.820769 731c        Options.min_write_buffer_number_to_merge: 1
2023/09/22-22:49:16.820771 731c     Options.max_write_buffer_number_to_maintain: 0
2023/09/22-22:49:16.820774 731c            Options.bottommost_compression_opts.window_bits: -14
2023/09/22-22:49:16.820777 731c                  Options.bottommost_compression_opts.level: 32767
2023/09/22-22:49:16.820780 731c               Options.bottommost_compression_opts.strategy: 0
2023/09/22-22:49:16.820783 731c         Options.bottommost_compression_opts.max_dict_bytes: 0
2023/09/22-22:49:16.820785 731c         Options.bottommost_compression_opts.zstd_max_train_bytes: 0
2023/09/22-22:49:16.820788 731c                  Options.bottommost_compression_opts.enabled: false
2023/09/22-22:49:16.820791 731c            Options.compression_opts.window_bits: -14
2023/09/22-22:49:16.820794 731c                  Options.compression_opts.level: 32767
2023/09/22-22:49:16.820796 731c               Options.compression_opts.strategy: 0
2023/09/22-22:49:16.820799 731c         Options.compression_opts.max_dict_bytes: 0
2023/09/22-22:49:16.820803 731c         Options.compression_opts.zstd_max_train_bytes: 0
2023/09/22-22:49:16.820834 731c                  Options.compression_opts.enabled: false
2023/09/22-22:49:16.820838 731c      Options.level0_file_num_compaction_trigger: 10
2023/09/22-22:49:16.820844 731c          Options.level0_slowdown_writes_trigger: 20
2023/09/22-22:49:16.820848 731c              Options.level0_stop_writes_trigger: 40
2023/09/22-22:49:16.820910 731c                   Options.target_file_size_base: 67108864
2023/09/22-22:49:16.820915 731c             Options.target_file_size_multiplier: 1
2023/09/22-22:49:16.820918 731c                Options.max_bytes_for_level_base: 536870912
2023/09/22-22:49:16.820921 731c Options.level_compaction_dynamic_level_bytes: 0
2023/09/22-22:49:16.820923 731c          Options.max_bytes_for_level_multiplier: 10.000000
2023/09/22-22:49:16.820928 731c Options.max_bytes_for_level_multiplier_addtl[0]: 1
2023/09/22-22:49:16.820931 731c Options.max_bytes_for_level_multiplier_addtl[1]: 1
2023/09/22-22:49:16.820934 731c Options.max_bytes_for_level_multiplier_addtl[2]: 1
2023/09/22-22:49:16.820936 731c Options.max_bytes_for_level_multiplier_addtl[3]: 1
2023/09/22-22:49:16.820939 731c Options.max_bytes_for_level_multiplier_addtl[4]: 1
2023/09/22-22:49:16.820942 731c Options.max_bytes_for_level_multiplier_addtl[5]: 1
2023/09/22-22:49:16.820944 731c Options.max_bytes_for_level_multiplier_addtl[6]: 1
2023/09/22-22:49:16.820947 731c       Options.max_sequential_skip_in_iterations: 8
2023/09/22-22:49:16.820950 731c                    Options.max_compaction_bytes: 1677721600
2023/09/22-22:49:16.820953 731c                        Options.arena_block_size: 8388608
2023/09/22-22:49:16.820956 731c   Options.soft_pending_compaction_bytes_limit: 68719476736
2023/09/22-22:49:16.820958 731c   Options.hard_pending_compaction_bytes_limit: 274877906944
2023/09/22-22:49:16.820961 731c       Options.rate_limit_delay_max_milliseconds: 100
2023/09/22-22:49:16.820964 731c                Options.disable_auto_compactions: 0
2023/09/22-22:49:16.820968 731c                        Options.compaction_style: kCompactionStyleLevel
2023/09/22-22:49:16.820972 731c                          Options.compaction_pri: kByCompensatedSize
2023/09/22-22:49:16.820975 731c Options.compaction_options_universal.size_ratio: 1
2023/09/22-22:49:16.820978 731c Options.compaction_options_universal.min_merge_width: 2
2023/09/22-22:49:16.820981 731c Options.compaction_options_universal.max_merge_width: 4294967295
2023/09/22-22:49:16.820984 731c Options.compaction_options_universal.max_size_amplification_percent: 200
2023/09/22-22:49:16.820987 731c Options.compaction_options_universal.compression_size_percent: -1
2023/09/22-22:49:16.820993 731c Options.compaction_options_universal.stop_style: kCompactionStopStyleTotalSize
2023/09/22-22:49:16.820997 731c Options.compaction_options_fifo.max_table_files_size: 1073741824
2023/09/22-22:49:16.821000 731c Options.compaction_options_fifo.allow_compaction: 0
2023/09/22-22:49:16.821003 731c Options.compaction_options_fifo.ttl: 0
2023/09/22-22:49:16.821005 731c                   Options.table_properties_collectors: 
2023/09/22-22:49:16.821008 731c                   Options.inplace_update_support: 0
2023/09/22-22:49:16.821011 731c                 Options.inplace_update_num_locks: 10000
2023/09/22-22:49:16.821014 731c               Options.memtable_prefix_bloom_size_ratio: 0.125000
2023/09/22-22:49:16.821017 731c   Options.memtable_huge_page_size: 0
2023/09/22-22:49:16.821020 731c                           Options.bloom_locality: 0
2023/09/22-22:49:16.821023 731c                    Options.max_successive_merges: 0
2023/09/22-22:49:16.821025 731c                Options.optimize_filters_for_hits: 0
2023/09/22-22:49:16.821028 731c                Options.paranoid_file_checks: 0
2023/09/22-22:49:16.821031 731c                Options.force_consistency_checks: 1
2023/09/22-22:49:16.821033 731c                Options.report_bg_io_stats: 0
2023/09/22-22:49:16.821036 731c                               Options.ttl: 0
2023/09/22-22:49:16.827979 731c [db\version_set.cc:3724] Recovered from manifest file:D:\AI\YSTH\SourceTree\springboot-bluejade-learn\other-file\nacos\data\protocol\raft\naming_instance_metadata\log/MANIFEST-000019 succeeded,manifest_file_number is 19, next_file_number is 22, last_sequence is 256, log_number is 0,prev_log_number is 0,max_column_family is 1,min_log_number_to_keep is 0
2023/09/22-22:49:16.827994 731c [db\version_set.cc:3732] Column family [default] (ID 0), log number is 18
2023/09/22-22:49:16.827998 731c [db\version_set.cc:3732] Column family [Configuration] (ID 1), log number is 18
2023/09/22-22:49:16.828222 731c EVENT_LOG_v1 {"time_micros": 1695394156828212, "job": 1, "event": "recovery_started", "log_files": [21]}
2023/09/22-22:49:16.828231 731c [db\db_impl_open.cc:578] Recovering log #21 mode 2
2023/09/22-22:49:16.944327 731c EVENT_LOG_v1 {"time_micros": 1695394156944307, "cf_name": "default", "job": 1, "event": "table_file_creation", "file_number": 22, "file_size": 716, "table_properties": {"data_size": 0, "index_size": 13, "filter_size": 0, "raw_key_size": 16, "raw_average_key_size": 0, "raw_value_size": 8, "raw_average_value_size": 0, "num_data_blocks": 0, "num_entries": 0, "filter_policy_name": ""}}
2023/09/22-22:49:16.946860 731c [db\version_set.cc:3037] Creating manifest 23
2023/09/22-22:49:17.157743 731c EVENT_LOG_v1 {"time_micros": 1695394157157724, "cf_name": "Configuration", "job": 1, "event": "table_file_creation", "file_number": 24, "file_size": 846, "table_properties": {"data_size": 44, "index_size": 49, "filter_size": 0, "raw_key_size": 42, "raw_average_key_size": 42, "raw_value_size": 16, "raw_average_value_size": 16, "num_data_blocks": 1, "num_entries": 1, "filter_policy_name": ""}}
2023/09/22-22:49:17.193547 731c EVENT_LOG_v1 {"time_micros": 1695394157193539, "job": 1, "event": "recovery_finished"}
2023/09/22-22:49:17.259006 731c [db\db_impl_open.cc:1314] DB pointer 0000019C0FE19800
2023/09/22-22:49:17.259456 e34 [WARN] [db\db_impl.cc:669] ------- DUMPING STATS -------
2023/09/22-22:49:17.259503 e34 [WARN] [db\db_impl.cc:670] 
** DB Stats **
Uptime(secs): 0.4 total, 0.4 interval
Cumulative writes: 0 writes, 0 keys, 0 commit groups, 0.0 writes per commit group, ingest: 0.00 GB, 0.00 MB/s
Cumulative WAL: 0 writes, 0 syncs, 0.00 writes per sync, written: 0.00 GB, 0.00 MB/s
Cumulative stall: 00:00:0.000 H:M:S, 0.0 percent
Interval writes: 0 writes, 0 keys, 0 commit groups, 0.0 writes per commit group, ingest: 0.00 MB, 0.00 MB/s
Interval WAL: 0 writes, 0 syncs, 0.00 writes per sync, written: 0.00 MB, 0.00 MB/s
Interval stall: 00:00:0.000 H:M:S, 0.0 percent

** Compaction Stats [default] **
Level    Files   Size     Score Read(GB)  Rn(GB) Rnp1(GB) Write(GB) Wnew(GB) Moved(GB) W-Amp Rd(MB/s) Wr(MB/s) Comp(sec) Comp(cnt) Avg(sec) KeyIn KeyDrop
----------------------------------------------------------------------------------------------------------------------------------------------------------
  L0      5/0    3.56 KB   0.5      0.0     0.0      0.0       0.0      0.0       0.0   1.0      0.0      0.0         0         1    0.116       0      0
 Sum      5/0    3.56 KB   0.0      0.0     0.0      0.0       0.0      0.0       0.0   1.0      0.0      0.0         0         1    0.116       0      0
 Int      0/0    0.00 KB   0.0      0.0     0.0      0.0       0.0      0.0       0.0   1.0      0.0      0.0         0         1    0.116       0      0
Uptime(secs): 0.4 total, 0.4 interval
Flush(GB): cumulative 0.000, interval 0.000
AddFile(GB): cumulative 0.000, interval 0.000
AddFile(Total Files): cumulative 0, interval 0
AddFile(L0 Files): cumulative 0, interval 0
AddFile(Keys): cumulative 0, interval 0
Cumulative compaction: 0.00 GB write, 0.00 MB/s write, 0.00 GB read, 0.00 MB/s read, 0.1 seconds
Interval compaction: 0.00 GB write, 0.00 MB/s write, 0.00 GB read, 0.00 MB/s read, 0.1 seconds
Stalls(count): 0 level0_slowdown, 0 level0_slowdown_with_compaction, 0 level0_numfiles, 0 level0_numfiles_with_compaction, 0 stop for pending_compaction_bytes, 0 slowdown for pending_compaction_bytes, 0 memtable_compaction, 0 memtable_slowdown, interval 0 total count

** File Read Latency Histogram By Level [default] **
** Level 0 read latency histogram (micros):
Count: 25 Average: 5.1200  StdDev: 6.84
Min: 1  Median: 1.6071  Max: 28
Percentiles: P50: 1.61 P75: 2.75 P99: 28.00 P99.9: 28.00 P99.99: 28.00
------------------------------------------------------
[       0,       1 ]        4  16.000%  16.000% ###
(       1,       2 ]       14  56.000%  72.000% ###########
(       2,       3 ]        1   4.000%  76.000% #
(       3,       4 ]        1   4.000%  80.000% #
(      10,      15 ]        1   4.000%  84.000% #
(      15,      22 ]        3  12.000%  96.000% ##
(      22,      34 ]        1   4.000% 100.000% #


** Compaction Stats [Configuration] **
Level    Files   Size     Score Read(GB)  Rn(GB) Rnp1(GB) Write(GB) Wnew(GB) Moved(GB) W-Amp Rd(MB/s) Wr(MB/s) Comp(sec) Comp(cnt) Avg(sec) KeyIn KeyDrop
----------------------------------------------------------------------------------------------------------------------------------------------------------
  L0      5/0    4.19 KB   0.5      0.0     0.0      0.0       0.0      0.0       0.0   1.0      0.0      0.0         0         1    0.072       0      0
 Sum      5/0    4.19 KB   0.0      0.0     0.0      0.0       0.0      0.0       0.0   1.0      0.0      0.0         0         1    0.072       0      0
 Int      0/0    0.00 KB   0.0      0.0     0.0      0.0       0.0      0.0       0.0   1.0      0.0      0.0         0         1    0.072       0      0
Uptime(secs): 0.4 total, 0.4 interval
Flush(GB): cumulative 0.000, interval 0.000
AddFile(GB): cumulative 0.000, interval 0.000
AddFile(Total Files): cumulative 0, interval 0
AddFile(L0 Files): cumulative 0, interval 0
AddFile(Keys): cumulative 0, interval 0
Cumulative compaction: 0.00 GB write, 0.00 MB/s write, 0.00 GB read, 0.00 MB/s read, 0.1 seconds
Interval compaction: 0.00 GB write, 0.00 MB/s write, 0.00 GB read, 0.00 MB/s read, 0.1 seconds
Stalls(count): 0 level0_slowdown, 0 level0_slowdown_with_compaction, 0 level0_numfiles, 0 level0_numfiles_with_compaction, 0 stop for pending_compaction_bytes, 0 slowdown for pending_compaction_bytes, 0 memtable_compaction, 0 memtable_slowdown, interval 0 total count

** File Read Latency Histogram By Level [Configuration] **
** Level 0 read latency histogram (micros):
Count: 35 Average: 5.4857  StdDev: 6.46
Min: 1  Median: 1.9167  Max: 26
Percentiles: P50: 1.92 P75: 3.75 P99: 26.00 P99.9: 26.00 P99.99: 26.00
------------------------------------------------------
[       0,       1 ]        1   2.857%   2.857% #
(       1,       2 ]       18  51.429%  54.286% ##########
(       2,       3 ]        5  14.286%  68.571% ###
(       3,       4 ]        3   8.571%  77.143% ##
(       6,      10 ]        2   5.714%  82.857% #
(      10,      15 ]        3   8.571%  91.429% ##
(      15,      22 ]        1   2.857%  94.286% #
(      22,      34 ]        2   5.714% 100.000% #


** Compaction Stats [default] **
Level    Files   Size     Score Read(GB)  Rn(GB) Rnp1(GB) Write(GB) Wnew(GB) Moved(GB) W-Amp Rd(MB/s) Wr(MB/s) Comp(sec) Comp(cnt) Avg(sec) KeyIn KeyDrop
----------------------------------------------------------------------------------------------------------------------------------------------------------
  L0      5/0    3.56 KB   0.5      0.0     0.0      0.0       0.0      0.0       0.0   1.0      0.0      0.0         0         1    0.116       0      0
 Sum      5/0    3.56 KB   0.0      0.0     0.0      0.0       0.0      0.0       0.0   1.0      0.0      0.0         0         1    0.116       0      0
 Int      0/0    0.00 KB   0.0      0.0     0.0      0.0       0.0      0.0       0.0   0.0      0.0      0.0         0         0    0.000       0      0
Uptime(secs): 0.4 total, 0.0 interval
Flush(GB): cumulative 0.000, interval 0.000
AddFile(GB): cumulative 0.000, interval 0.000
AddFile(Total Files): cumulative 0, interval 0
AddFile(L0 Files): cumulative 0, interval 0
AddFile(Keys): cumulative 0, interval 0
Cumulative compaction: 0.00 GB write, 0.00 MB/s write, 0.00 GB read, 0.00 MB/s read, 0.1 seconds
Interval compaction: 0.00 GB write, 0.00 MB/s write, 0.00 GB read, 0.00 MB/s read, 0.0 seconds
Stalls(count): 0 level0_slowdown, 0 level0_slowdown_with_compaction, 0 level0_numfiles, 0 level0_numfiles_with_compaction, 0 stop for pending_compaction_bytes, 0 slowdown for pending_compaction_bytes, 0 memtable_compaction, 0 memtable_slowdown, interval 0 total count

** File Read Latency Histogram By Level [default] **
** Level 0 read latency histogram (micros):
Count: 25 Average: 5.1200  StdDev: 6.84
Min: 1  Median: 1.6071  Max: 28
Percentiles: P50: 1.61 P75: 2.75 P99: 28.00 P99.9: 28.00 P99.99: 28.00
------------------------------------------------------
[       0,       1 ]        4  16.000%  16.000% ###
(       1,       2 ]       14  56.000%  72.000% ###########
(       2,       3 ]        1   4.000%  76.000% #
(       3,       4 ]        1   4.000%  80.000% #
(      10,      15 ]        1   4.000%  84.000% #
(      15,      22 ]        3  12.000%  96.000% ##
(      22,      34 ]        1   4.000% 100.000% #


** Compaction Stats [Configuration] **
Level    Files   Size     Score Read(GB)  Rn(GB) Rnp1(GB) Write(GB) Wnew(GB) Moved(GB) W-Amp Rd(MB/s) Wr(MB/s) Comp(sec) Comp(cnt) Avg(sec) KeyIn KeyDrop
----------------------------------------------------------------------------------------------------------------------------------------------------------
  L0      5/0    4.19 KB   0.5      0.0     0.0      0.0       0.0      0.0       0.0   1.0      0.0      0.0         0         1    0.072       0      0
 Sum      5/0    4.19 KB   0.0      0.0     0.0      0.0       0.0      0.0       0.0   1.0      0.0      0.0         0         1    0.072       0      0
 Int      0/0    0.00 KB   0.0      0.0     0.0      0.0       0.0      0.0       0.0   0.0      0.0      0.0         0         0    0.000       0      0
Uptime(secs): 0.4 total, 0.0 interval
Flush(GB): cumulative 0.000, interval 0.000
AddFile(GB): cumulative 0.000, interval 0.000
AddFile(Total Files): cumulative 0, interval 0
AddFile(L0 Files): cumulative 0, interval 0
AddFile(Keys): cumulative 0, interval 0
Cumulative compaction: 0.00 GB write, 0.00 MB/s write, 0.00 GB read, 0.00 MB/s read, 0.1 seconds
Interval compaction: 0.00 GB write, 0.00 MB/s write, 0.00 GB read, 0.00 MB/s read, 0.0 seconds
Stalls(count): 0 level0_slowdown, 0 level0_slowdown_with_compaction, 0 level0_numfiles, 0 level0_numfiles_with_compaction, 0 stop for pending_compaction_bytes, 0 slowdown for pending_compaction_bytes, 0 memtable_compaction, 0 memtable_slowdown, interval 0 total count

** File Read Latency Histogram By Level [Configuration] **
** Level 0 read latency histogram (micros):
Count: 35 Average: 5.4857  StdDev: 6.46
Min: 1  Median: 1.9167  Max: 26
Percentiles: P50: 1.92 P75: 3.75 P99: 26.00 P99.9: 26.00 P99.99: 26.00
------------------------------------------------------
[       0,       1 ]        1   2.857%   2.857% #
(       1,       2 ]       18  51.429%  54.286% ##########
(       2,       3 ]        5  14.286%  68.571% ###
(       3,       4 ]        3   8.571%  77.143% ##
(       6,      10 ]        2   5.714%  82.857% #
(      10,      15 ]        3   8.571%  91.429% ##
(      15,      22 ]        1   2.857%  94.286% #
(      22,      34 ]        2   5.714% 100.000% #

2023/09/22-22:49:17.262050 e34 [WARN] [db\db_impl.cc:617] STATISTICS:
 rocksdb.block.cache.miss COUNT : 20
rocksdb.block.cache.hit COUNT : 5
rocksdb.block.cache.add COUNT : 20
rocksdb.block.cache.add.failures COUNT : 0
rocksdb.block.cache.index.miss COUNT : 5
rocksdb.block.cache.index.hit COUNT : 5
rocksdb.block.cache.index.add COUNT : 5
rocksdb.block.cache.index.bytes.insert COUNT : 510
rocksdb.block.cache.index.bytes.evict COUNT : 0
rocksdb.block.cache.filter.miss COUNT : 0
rocksdb.block.cache.filter.hit COUNT : 0
rocksdb.block.cache.filter.add COUNT : 0
rocksdb.block.cache.filter.bytes.insert COUNT : 0
rocksdb.block.cache.filter.bytes.evict COUNT : 0
rocksdb.block.cache.data.miss COUNT : 15
rocksdb.block.cache.data.hit COUNT : 0
rocksdb.block.cache.data.add COUNT : 15
rocksdb.block.cache.data.bytes.insert COUNT : 1899
rocksdb.block.cache.bytes.read COUNT : 510
rocksdb.block.cache.bytes.write COUNT : 2409
rocksdb.bloom.filter.useful COUNT : 0
rocksdb.bloom.filter.full.positive COUNT : 0
rocksdb.bloom.filter.full.true.positive COUNT : 0
rocksdb.persistent.cache.hit COUNT : 0
rocksdb.persistent.cache.miss COUNT : 0
rocksdb.sim.block.cache.hit COUNT : 0
rocksdb.sim.block.cache.miss COUNT : 0
rocksdb.memtable.hit COUNT : 0
rocksdb.memtable.miss COUNT : 0
rocksdb.l0.hit COUNT : 0
rocksdb.l1.hit COUNT : 0
rocksdb.l2andup.hit COUNT : 0
rocksdb.compaction.key.drop.new COUNT : 0
rocksdb.compaction.key.drop.obsolete COUNT : 0
rocksdb.compaction.key.drop.range_del COUNT : 0
rocksdb.compaction.key.drop.user COUNT : 0
rocksdb.compaction.range_del.drop.obsolete COUNT : 0
rocksdb.compaction.optimized.del.drop.obsolete COUNT : 0
rocksdb.compaction.cancelled COUNT : 0
rocksdb.number.keys.written COUNT : 1
rocksdb.number.keys.read COUNT : 0
rocksdb.number.keys.updated COUNT : 0
rocksdb.bytes.written COUNT : 31
rocksdb.bytes.read COUNT : 0
rocksdb.number.db.seek COUNT : 2
rocksdb.number.db.next COUNT : 1
rocksdb.number.db.prev COUNT : 0
rocksdb.number.db.seek.found COUNT : 1
rocksdb.number.db.next.found COUNT : 0
rocksdb.number.db.prev.found COUNT : 0
rocksdb.db.iter.bytes.read COUNT : 26
rocksdb.no.file.closes COUNT : 0
rocksdb.no.file.opens COUNT : 10
rocksdb.no.file.errors COUNT : 0
rocksdb.l0.slowdown.micros COUNT : 0
rocksdb.memtable.compaction.micros COUNT : 0
rocksdb.l0.num.files.stall.micros COUNT : 0
rocksdb.stall.micros COUNT : 0
rocksdb.db.mutex.wait.micros COUNT : 0
rocksdb.rate.limit.delay.millis COUNT : 0
rocksdb.num.iterators COUNT : 0
rocksdb.number.multiget.get COUNT : 0
rocksdb.number.multiget.keys.read COUNT : 0
rocksdb.number.multiget.bytes.read COUNT : 0
rocksdb.number.deletes.filtered COUNT : 0
rocksdb.number.merge.failures COUNT : 0
rocksdb.bloom.filter.prefix.checked COUNT : 0
rocksdb.bloom.filter.prefix.useful COUNT : 0
rocksdb.number.reseeks.iteration COUNT : 0
rocksdb.getupdatessince.calls COUNT : 0
rocksdb.block.cachecompressed.miss COUNT : 0
rocksdb.block.cachecompressed.hit COUNT : 0
rocksdb.block.cachecompressed.add COUNT : 0
rocksdb.block.cachecompressed.add.failures COUNT : 0
rocksdb.wal.synced COUNT : 0
rocksdb.wal.bytes COUNT : 0
rocksdb.write.self COUNT : 1
rocksdb.write.other COUNT : 0
rocksdb.write.timeout COUNT : 0
rocksdb.write.wal COUNT : 1
rocksdb.compact.read.bytes COUNT : 0
rocksdb.compact.write.bytes COUNT : 1562
rocksdb.flush.write.bytes COUNT : 0
rocksdb.number.direct.load.table.properties COUNT : 0
rocksdb.number.superversion_acquires COUNT : 2
rocksdb.number.superversion_releases COUNT : 0
rocksdb.number.superversion_cleanups COUNT : 0
rocksdb.number.block.compressed COUNT : 1
rocksdb.number.block.decompressed COUNT : 5
rocksdb.number.block.not_compressed COUNT : 0
rocksdb.merge.operation.time.nanos COUNT : 0
rocksdb.filter.operation.time.nanos COUNT : 0
rocksdb.row.cache.hit COUNT : 0
rocksdb.row.cache.miss COUNT : 0
rocksdb.read.amp.estimate.useful.bytes COUNT : 0
rocksdb.read.amp.total.read.bytes COUNT : 0
rocksdb.number.rate_limiter.drains COUNT : 0
rocksdb.number.iter.skip COUNT : 4
rocksdb.blobdb.num.put COUNT : 0
rocksdb.blobdb.num.write COUNT : 0
rocksdb.blobdb.num.get COUNT : 0
rocksdb.blobdb.num.multiget COUNT : 0
rocksdb.blobdb.num.seek COUNT : 0
rocksdb.blobdb.num.next COUNT : 0
rocksdb.blobdb.num.prev COUNT : 0
rocksdb.blobdb.num.keys.written COUNT : 0
rocksdb.blobdb.num.keys.read COUNT : 0
rocksdb.blobdb.bytes.written COUNT : 0
rocksdb.blobdb.bytes.read COUNT : 0
rocksdb.blobdb.write.inlined COUNT : 0
rocksdb.blobdb.write.inlined.ttl COUNT : 0
rocksdb.blobdb.write.blob COUNT : 0
rocksdb.blobdb.write.blob.ttl COUNT : 0
rocksdb.blobdb.blob.file.bytes.written COUNT : 0
rocksdb.blobdb.blob.file.bytes.read COUNT : 0
rocksdb.blobdb.blob.file.synced COUNT : 0
rocksdb.blobdb.blob.index.expired.count COUNT : 0
rocksdb.blobdb.blob.index.expired.size COUNT : 0
rocksdb.blobdb.blob.index.evicted.count COUNT : 0
rocksdb.blobdb.blob.index.evicted.size COUNT : 0
rocksdb.blobdb.gc.num.files COUNT : 0
rocksdb.blobdb.gc.num.new.files COUNT : 0
rocksdb.blobdb.gc.failures COUNT : 0
rocksdb.blobdb.gc.num.keys.overwritten COUNT : 0
rocksdb.blobdb.gc.num.keys.expired COUNT : 0
rocksdb.blobdb.gc.num.keys.relocated COUNT : 0
rocksdb.blobdb.gc.bytes.overwritten COUNT : 0
rocksdb.blobdb.gc.bytes.expired COUNT : 0
rocksdb.blobdb.gc.bytes.relocated COUNT : 0
rocksdb.blobdb.fifo.num.files.evicted COUNT : 0
rocksdb.blobdb.fifo.num.keys.evicted COUNT : 0
rocksdb.blobdb.fifo.bytes.evicted COUNT : 0
rocksdb.txn.overhead.mutex.prepare COUNT : 0
rocksdb.txn.overhead.mutex.old.commit.map COUNT : 0
rocksdb.txn.overhead.duplicate.key COUNT : 0
rocksdb.txn.overhead.mutex.snapshot COUNT : 0
rocksdb.number.multiget.keys.found COUNT : 0
rocksdb.num.iterator.created COUNT : 2
rocksdb.num.iterator.deleted COUNT : 2
rocksdb.db.get.micros P50 : 0.000000 P95 : 0.000000 P99 : 0.000000 P100 : 0.000000 COUNT : 0 SUM : 0
rocksdb.db.write.micros P50 : 0.000000 P95 : 0.000000 P99 : 0.000000 P100 : 0.000000 COUNT : 0 SUM : 0
rocksdb.compaction.times.micros P50 : 0.000000 P95 : 0.000000 P99 : 0.000000 P100 : 0.000000 COUNT : 0 SUM : 0
rocksdb.subcompaction.setup.times.micros P50 : 0.000000 P95 : 0.000000 P99 : 0.000000 P100 : 0.000000 COUNT : 0 SUM : 0
rocksdb.table.sync.micros P50 : 50000.000000 P95 : 114347.000000 P99 : 114347.000000 P100 : 114347.000000 COUNT : 2 SUM : 163259
rocksdb.compaction.outfile.sync.micros P50 : 0.000000 P95 : 0.000000 P99 : 0.000000 P100 : 0.000000 COUNT : 0 SUM : 0
rocksdb.wal.file.sync.micros P50 : 0.000000 P95 : 0.000000 P99 : 0.000000 P100 : 0.000000 COUNT : 0 SUM : 0
rocksdb.manifest.file.sync.micros P50 : 33000.000000 P95 : 48300.000000 P99 : 48479.000000 P100 : 48479.000000 COUNT : 2 SUM : 80733
rocksdb.table.open.io.micros P50 : 89.600000 P95 : 188.000000 P99 : 188.000000 P100 : 188.000000 COUNT : 10 SUM : 998
rocksdb.db.multiget.micros P50 : 0.000000 P95 : 0.000000 P99 : 0.000000 P100 : 0.000000 COUNT : 0 SUM : 0
rocksdb.read.block.compaction.micros P50 : 0.000000 P95 : 0.000000 P99 : 0.000000 P100 : 0.000000 COUNT : 0 SUM : 0
rocksdb.read.block.get.micros P50 : 2.363636 P95 : 10.000000 P99 : 16.000000 P100 : 16.000000 COUNT : 20 SUM : 65
rocksdb.write.raw.block.micros P50 : 0.625000 P95 : 2.500000 P99 : 2.900000 P100 : 3.000000 COUNT : 10 SUM : 9
rocksdb.l0.slowdown.count P50 : 0.000000 P95 : 0.000000 P99 : 0.000000 P100 : 0.000000 COUNT : 0 SUM : 0
rocksdb.memtable.compaction.count P50 : 0.000000 P95 : 0.000000 P99 : 0.000000 P100 : 0.000000 COUNT : 0 SUM : 0
rocksdb.num.files.stall.count P50 : 0.000000 P95 : 0.000000 P99 : 0.000000 P100 : 0.000000 COUNT : 0 SUM : 0
rocksdb.hard.rate.limit.delay.count P50 : 0.000000 P95 : 0.000000 P99 : 0.000000 P100 : 0.000000 COUNT : 0 SUM : 0
rocksdb.soft.rate.limit.delay.count P50 : 0.000000 P95 : 0.000000 P99 : 0.000000 P100 : 0.000000 COUNT : 0 SUM : 0
rocksdb.numfiles.in.singlecompaction P50 : 0.000000 P95 : 0.000000 P99 : 0.000000 P100 : 0.000000 COUNT : 0 SUM : 0
rocksdb.db.seek.micros P50 : 0.000000 P95 : 0.000000 P99 : 0.000000 P100 : 0.000000 COUNT : 0 SUM : 0
rocksdb.db.write.stall P50 : 0.000000 P95 : 0.000000 P99 : 0.000000 P100 : 0.000000 COUNT : 0 SUM : 0
rocksdb.sst.read.micros P50 : 1.781250 P95 : 22.000000 P99 : 28.000000 P100 : 28.000000 COUNT : 60 SUM : 320
rocksdb.num.subcompactions.scheduled P50 : 0.000000 P95 : 0.000000 P99 : 0.000000 P100 : 0.000000 COUNT : 0 SUM : 0
rocksdb.bytes.per.read P50 : 0.000000 P95 : 0.000000 P99 : 0.000000 P100 : 0.000000 COUNT : 0 SUM : 0
rocksdb.bytes.per.write P50 : 31.000000 P95 : 31.000000 P99 : 31.000000 P100 : 31.000000 COUNT : 1 SUM : 31
rocksdb.bytes.per.multiget P50 : 0.000000 P95 : 0.000000 P99 : 0.000000 P100 : 0.000000 COUNT : 0 SUM : 0
rocksdb.bytes.compressed P50 : 45.000000 P95 : 45.000000 P99 : 45.000000 P100 : 45.000000 COUNT : 1 SUM : 45
rocksdb.bytes.decompressed P50 : 45.000000 P95 : 45.000000 P99 : 45.000000 P100 : 45.000000 COUNT : 5 SUM : 225
rocksdb.compression.times.nanos P50 : 0.000000 P95 : 0.000000 P99 : 0.000000 P100 : 0.000000 COUNT : 0 SUM : 0
rocksdb.decompression.times.nanos P50 : 0.000000 P95 : 0.000000 P99 : 0.000000 P100 : 0.000000 COUNT : 0 SUM : 0
rocksdb.read.num.merge_operands P50 : 0.000000 P95 : 0.000000 P99 : 0.000000 P100 : 0.000000 COUNT : 0 SUM : 0
rocksdb.blobdb.key.size P50 : 0.000000 P95 : 0.000000 P99 : 0.000000 P100 : 0.000000 COUNT : 0 SUM : 0
rocksdb.blobdb.value.size P50 : 0.000000 P95 : 0.000000 P99 : 0.000000 P100 : 0.000000 COUNT : 0 SUM : 0
rocksdb.blobdb.write.micros P50 : 0.000000 P95 : 0.000000 P99 : 0.000000 P100 : 0.000000 COUNT : 0 SUM : 0
rocksdb.blobdb.get.micros P50 : 0.000000 P95 : 0.000000 P99 : 0.000000 P100 : 0.000000 COUNT : 0 SUM : 0
rocksdb.blobdb.multiget.micros P50 : 0.000000 P95 : 0.000000 P99 : 0.000000 P100 : 0.000000 COUNT : 0 SUM : 0
rocksdb.blobdb.seek.micros P50 : 0.000000 P95 : 0.000000 P99 : 0.000000 P100 : 0.000000 COUNT : 0 SUM : 0
rocksdb.blobdb.next.micros P50 : 0.000000 P95 : 0.000000 P99 : 0.000000 P100 : 0.000000 COUNT : 0 SUM : 0
rocksdb.blobdb.prev.micros P50 : 0.000000 P95 : 0.000000 P99 : 0.000000 P100 : 0.000000 COUNT : 0 SUM : 0
rocksdb.blobdb.blob.file.write.micros P50 : 0.000000 P95 : 0.000000 P99 : 0.000000 P100 : 0.000000 COUNT : 0 SUM : 0
rocksdb.blobdb.blob.file.read.micros P50 : 0.000000 P95 : 0.000000 P99 : 0.000000 P100 : 0.000000 COUNT : 0 SUM : 0
rocksdb.blobdb.blob.file.sync.micros P50 : 0.000000 P95 : 0.000000 P99 : 0.000000 P100 : 0.000000 COUNT : 0 SUM : 0
rocksdb.blobdb.gc.micros P50 : 0.000000 P95 : 0.000000 P99 : 0.000000 P100 : 0.000000 COUNT : 0 SUM : 0
rocksdb.blobdb.compression.micros P50 : 0.000000 P95 : 0.000000 P99 : 0.000000 P100 : 0.000000 COUNT : 0 SUM : 0
rocksdb.blobdb.decompression.micros P50 : 0.000000 P95 : 0.000000 P99 : 0.000000 P100 : 0.000000 COUNT : 0 SUM : 0
rocksdb.db.flush.micros P50 : 0.000000 P95 : 0.000000 P99 : 0.000000 P100 : 0.000000 COUNT : 0 SUM : 0
